CREATE OR REPLACE FUNCTION       CACLCx1x2
(
  IN_PARAM_1 IN INTEGER --a
, IN_PARAM_2 IN INTEGER --b
, IN_PARAM_3 IN INTEGER --c
, OUT_PARAM_1 OUT FLOAT --x1
, OUT_PARAM_2 OUT FLOAT --x2

)RETURN VARCHAR2 AS

D float;
reslt VARCHAR2(3);

BEGIN  
  reslt:='NO';
  D:=(IN_PARAM_2*IN_PARAM_2)-4*(IN_PARAM_1*IN_PARAM_3);
  
  IF(D<0)THEN
  reslt:='NO';
  END IF;
  
  IF(D=0)THEN
  OUT_PARAM_1:=((-1*IN_PARAM_2)-(SQRT (D)))/(2*IN_PARAM_1);
  OUT_PARAM_2:=OUT_PARAM_1;
  reslt:='YES';
  END IF;
  
  IF(D>0)THEN
  OUT_PARAM_1:=((-1*IN_PARAM_2)-(SQRT (D)))/(2*IN_PARAM_1);
  OUT_PARAM_2:=((-1*IN_PARAM_2)+(SQRT (D)))/(2*IN_PARAM_1);
  reslt:='YES';
  END IF;
  
  RETURN reslt;
END;